%YAML 1.1
%TAG !u! tag:unity3d.com,2011:
--- !u!1001 &4571116539874120277
PrefabInstance:
  m_ObjectHideFlags: 0
  serializedVersion: 2
  m_Modification:
    m_TransformParent: {fileID: 0}
    m_Modifications:
    - target: {fileID: 8261036530400639443, guid: 3c99d0ba506360a43b8cea08ef805d25, type: 3}
      propertyPath: m_RootOrder
      value: 0
      objectReference: {fileID: 0}
    - target: {fileID: 8261036530400639443, guid: 3c99d0ba506360a43b8cea08ef805d25, type: 3}
      propertyPath: m_LocalPosition.x
      value: -0.001
      objectReference: {fileID: 0}
    - target: {fileID: 8261036530400639443, guid: 3c99d0ba506360a43b8cea08ef805d25, type: 3}
      propertyPath: m_LocalPosition.y
      value: 0.001
      objectReference: {fileID: 0}
    - target: {fileID: 8261036530400639443, guid: 3c99d0ba506360a43b8cea08ef805d25, type: 3}
      propertyPath: m_LocalPosition.z
      value: -0.035
      objectReference: {fileID: 0}
    - target: {fileID: 8261036530400639443, guid: 3c99d0ba506360a43b8cea08ef805d25, type: 3}
      propertyPath: m_LocalRotation.w
      value: 0.7071068
      objectReference: {fileID: 0}
    - target: {fileID: 8261036530400639443, guid: 3c99d0ba506360a43b8cea08ef805d25, type: 3}
      propertyPath: m_LocalRotation.x
      value: 0
      objectReference: {fileID: 0}
    - target: {fileID: 8261036530400639443, guid: 3c99d0ba506360a43b8cea08ef805d25, type: 3}
      propertyPath: m_LocalRotation.y
      value: 0
      objectReference: {fileID: 0}
    - target: {fileID: 8261036530400639443, guid: 3c99d0ba506360a43b8cea08ef805d25, type: 3}
      propertyPath: m_LocalRotation.z
      value: -0.7071068
      objectReference: {fileID: 0}
    - target: {fileID: 8261036530400639443, guid: 3c99d0ba506360a43b8cea08ef805d25, type: 3}
      propertyPath: m_LocalEulerAnglesHint.x
      value: 0
      objectReference: {fileID: 0}
    - target: {fileID: 8261036530400639443, guid: 3c99d0ba506360a43b8cea08ef805d25, type: 3}
      propertyPath: m_LocalEulerAnglesHint.y
      value: 0
      objectReference: {fileID: 0}
    - target: {fileID: 8261036530400639443, guid: 3c99d0ba506360a43b8cea08ef805d25, type: 3}
      propertyPath: m_LocalEulerAnglesHint.z
      value: -90
      objectReference: {fileID: 0}
    - target: {fileID: 8265230060884797615, guid: 3c99d0ba506360a43b8cea08ef805d25, type: 3}
      propertyPath: m_Name
      value: Custom Right Hand Model with Collider
      objectReference: {fileID: 0}
    m_RemovedComponents: []
  m_SourcePrefab: {fileID: 100100000, guid: 3c99d0ba506360a43b8cea08ef805d25, type: 3}
